[
  {
    "movieId": 493405,
    "similitudes": "[1.0, NaN,0.961604852,1, NaN, NaN, NaN,1, NaN,1, NaN,0.981362683,0.904915715, NaN,0.966956772,1, NaN, NaN,0.998530965,0.988896348, NaN,0.999905754, NaN, NaN,0.932568098,1, NaN,0.964293976, NaN, NaN, NaN,0.994237018, NaN,0.894125831, NaN,0.971317877, NaN, NaN, NaN, NaN]"
  },
  {
    "movieId": 498381,
    "similitudes": "[NaN,1,0.862453283,0.847303949,0.928476691, NaN,0.480011415,0.912302744,0.980137906,0.969071079,1,0.987414217,0.914234368, NaN,0.916567516,0.96343524,0.950357402,0.986016014,0.945862866,0.913749867,0.922800883,0.934487735,1,0.956018558,0.969900958,0.979804059,0.988571053,0.930295452,0.902575971, NaN,0.990373372,0.94720902, NaN,0.909959536,1,0.932492959, NaN, NaN,0.903737839, NaN]"
  },
  {
    "movieId": 1219827,
    "similitudes": "[0.9616048524464131,0.862453283,1,0.972252979,0.986469232,0.967927492,0.991967741,0.959785966,0.901700096,0.978950449,1,0.962892732,0.935729098,0.998868138,0.969611486,0.99611649,1,0.905821627,0.960144512,0.971822747,0.962501175,0.977729309,0.981106988,1,0.954905566, NaN,0.97531982,0.97483227,0.912661078, NaN,0.954275175,0.961744255, NaN,0.97720806,0.967221163,0.968417453, NaN,0.992157222,0.978278785, NaN]"
  },
  {
    "movieId": 1293847,
    "similitudes": "[1.0,0.847303949,0.972252979,1, NaN, NaN,1,0.903696114,0.823687768,0.914084931,0.995893206,0.937021091,0.921112381,0.824441009,0.938561288,0.877777778,0.935376561,0.95292578,0.98699796,0.950477213,0.97547566,0.966830439,0.74753193, NaN,0.964547863,0.911684612,0.976647389,0.937772689,0.970764227, NaN,0.922033236,0.953914697,1,0.955757043, NaN,0.922473083,0.974633979, NaN,1, 1.0]"
  },
  {
    "movieId": 1691916,
    "similitudes": "[NaN,0.928476691,0.986469232, NaN,1, NaN,1,1, NaN,0.988235294,1, NaN,0.98467484,1,0.934997738,0.992733782, NaN, NaN,0.989803084,0.937097252,0.989949494,1,1, NaN,0.989949494, NaN,0.997054486,0.989730305,0.912766595, NaN,1,0.907238037, NaN,0.938045426, NaN,0.945657695, NaN, NaN, NaN, NaN]"
  },
  {
    "movieId": 1730768,
    "similitudes": "[NaN, NaN,0.967927492, NaN, NaN,1,1, NaN, NaN, NaN, NaN,1,0.995211591, NaN,0.998659501,1, NaN, NaN,0.999947942,0.994949495,0.997529518, NaN, NaN, NaN,0.99716412, NaN,1,0.981211046,1, NaN, NaN,0.998460353, NaN,0.98601375, NaN,1, NaN, NaN, NaN, NaN]"
  },
  {
    "movieId": 1753383,
    "similitudes": "[NaN,0.480011415,0.991967741,1,1,1,1, NaN, NaN, NaN, NaN,1,0.938768427, NaN,0.954192766,0.986393924, NaN,1, NaN,0.918893728,1,1, NaN, NaN,0.996620965, NaN,1,1,0.629600188,1,1,0.982608426, NaN,0.948045117, NaN,1, NaN, NaN, NaN, NaN]"
  },
  {
    "movieId": 2072233,
    "similitudes": "[1.0,0.912302744,0.959785966,0.903696114,1, NaN, NaN,1,1,0.979481023,0.989744008,1,0.982812226,1,0.959841357,0.896526715,0.986016014,0.989408559,0.997551319,0.961723022,0.982102279,0.985422294,0.980809654, NaN,0.945124712,0.828441042,0.9682906,0.821096797,1, NaN,0.996208161,0.960966086, NaN,0.909596955,1,0.955966614,1, NaN,1, NaN]"
  },
  {
    "movieId": 2398241,
    "similitudes": "[NaN,0.980137906,0.901700096,0.823687768, NaN, NaN, NaN,1,1,0.91192176, NaN, NaN,0.961869227, NaN,0.938503717,1,0.915208631,0.996786917,0.959126359,0.969776823,0.930537331,0.956465082,1,1,0.999491109, NaN,1,0.932154592,0.879706514, NaN,0.99716412,0.917485892, NaN,0.982380338,1,0.957550257, NaN, NaN, NaN, NaN]"
  },
  {
    "movieId": 2568862,
    "similitudes": "[1.0,0.969071079,0.978950449,0.914084931,0.988235294, NaN, NaN,0.979481023,0.91192176,1, NaN,0.983094732,0.969530228,1,0.985861986,0.924400376,0.979364336,0.855748918,0.945477664,0.973382281,0.981737755,0.989193378,0.997951741,0.77326779,0.9864066,1,0.891903506,0.913555646,0.997261587,1,1,0.947057622,1,0.982859908,1,0.979386606,1, NaN, NaN, NaN]"
  },
  {
    "movieId": 2582576,
    "similitudes": "[NaN,1,1,0.995893206,1, NaN, NaN,0.989744008, NaN, NaN,1, NaN,0.977135528, NaN,0.919276962,1, NaN, NaN, NaN,0.953395946, NaN,0.958798113,0.980580676,0.900551636,0.973934915, NaN, NaN, NaN,0.981139061, NaN,1,1, NaN,0.926561646,1,0.97051731, NaN, NaN,0.954226214, NaN]"
  },
  {
    "movieId": 2763304,
    "similitudes": "[0.9813626826200892,0.987414217,0.962892732,0.937021091, NaN,1,1,1, NaN,0.983094732, NaN,1,0.960420314, NaN,0.990232372,1, NaN, NaN,0.997972071,0.988596548,0.986955803,0.994475802,1,1,0.983969402, NaN,0.997785158,0.992295485,0.916949301, NaN,0.999709808,0.966967584, NaN,0.98670804, NaN,0.989157839, NaN,1,0.993265917, NaN]"
  },
  {
    "movieId": 2771200,
    "similitudes": "[0.9049157148705023,0.914234368,0.935729098,0.921112381,0.98467484,0.995211591,0.938768427,0.982812226,0.961869227,0.969530228,0.977135528,0.960420314,1,0.847097488,0.972752471,0.980793871,0.99797343,0.914774368,0.967708675,0.966123028,0.979312243,0.966464312,0.979286039,0.994540886,0.985882391,1,0.952609313,0.974911709,0.945654962,0.995399675,0.995893206,0.970440209,0.999980949,0.97678801,0.965775404,0.967818174,0.944737946, NaN,0.954893531, 1.0]"
  },
  {
    "movieId": 3171832,
    "similitudes": "[NaN, NaN,0.998868138,0.824441009,1, NaN, NaN,1, NaN,1, NaN, NaN,0.847097488,1,0.97876103,1,1, NaN,1,0.977262288,0.986016014,0.995783405,0.980067422, NaN,0.940630642,0.999444907, NaN,0.997755518, NaN, NaN, NaN,0.838325948, NaN,0.984117685, NaN,0.972472376,0.991150442, NaN,0.981155781, 0.9977851578566088]"
  },
  {
    "movieId": 3315342,
    "similitudes": "[0.9669567719978749,0.916567516,0.969611486,0.938561288,0.934997738,0.998659501,0.954192766,0.959841357,0.938503717,0.985861986,0.919276962,0.990232372,0.972752471,0.97876103,1,0.982387913,0.985757735,0.812295542,0.976667428,0.971614168,0.982046812,0.987776756,0.963592629,0.844560247,0.983780949,0.935087799,0.946047026,0.968634096,0.919396091,0.99875843,0.918138202,0.968210249,0.996044704,0.981018851,0.987348712,0.978113488,0.997612158,0.938976438,0.976660585, 0.9918365981341755]"
  },
  {
    "movieId": 3401882,
    "similitudes": "[1.0,0.96343524,0.99611649,0.877777778,0.992733782,1,0.986393924,0.896526715,1,0.924400376,1,1,0.980793871,1,0.982387913,1, NaN, NaN,0.998654097,0.970704005,0.997375364,1,1,1,0.978671298, NaN,0.964763821,0.915829417,0.856348839,1,1,0.994286396, NaN,0.976849947, NaN,0.97210817, NaN, NaN, NaN, NaN]"
  },
  {
    "movieId": 3405236,
    "similitudes": "[NaN,0.950357402,1,0.935376561, NaN, NaN, NaN,0.986016014,0.915208631,0.979364336, NaN, NaN,0.99797343,1,0.985757735, NaN,1,1,0.984528915,0.991083924,0.992356775,1, NaN, NaN,0.997248427,0.995893206,1,0.969468787,1, NaN, NaN,0.976561673,0.986940183,0.983146684, NaN,0.983967484,0.985097394, NaN, NaN, 0.9846743295019159]"
  },
  {
    "movieId": 3462710,
    "similitudes": "[NaN,0.986016014,0.905821627,0.95292578, NaN, NaN,1,0.989408559,0.996786917,0.855748918, NaN, NaN,0.914774368, NaN,0.812295542, NaN,1,1,1,0.909836329,1,0.940554281, NaN, NaN,1, NaN,1,0.927100999,1, NaN,0.999957837,0.93783213, NaN,0.873304855,0.83701022,0.891051177, NaN, NaN, NaN, NaN]"
  },
  {
    "movieId": 3717490,
    "similitudes": "[0.998530965365327,0.945862866,0.960144512,0.98699796,0.989803084,0.999947942, NaN,0.997551319,0.959126359,0.945477664, NaN,0.997972071,0.967708675,1,0.976667428,0.998654097,0.984528915,1,1,0.968579068,0.961088846,0.977475057,0.997364949,1,0.967468543, NaN,0.992543455,0.98666242,0.963815362,1,1,0.966327525, NaN,0.958133663,1,0.93651342,1, NaN,0.999837715, NaN]"
  },
  {
    "movieId": 3731562,
    "similitudes": "[0.9888963482729782,0.913749867,0.971822747,0.950477213,0.937097252,0.994949495,0.918893728,0.961723022,0.969776823,0.973382281,0.953395946,0.988596548,0.966123028,0.977262288,0.971614168,0.970704005,0.991083924,0.909836329,0.968579068,1,0.986222062,0.979307933,0.98736869,0.969115544,0.979706297,0.93670191,0.878072249,0.974167205,0.928128813,0.967091361,0.974179256,0.976703931,0.998726925,0.975184903,0.99780995,0.97101113,0.996100704, NaN,0.949078085, 0.9962049198956217]"
  },
  {
    "movieId": 3874544,
    "similitudes": "[NaN,0.922800883,0.962501175,0.97547566,0.989949494,0.997529518,1,0.982102279,0.930537331,0.981737755, NaN,0.986955803,0.979312243,0.986016014,0.982046812,0.997375364,0.992356775,1,0.961088846,0.986222062,1,0.981797044,0.996545758,1,0.991499294, NaN,0.958966749,0.967738321,0.941490485, NaN,0.730271414,0.976297083, NaN,0.980805476, NaN,0.948618841, NaN, NaN, NaN, NaN]"
  },
  {
    "movieId": 3896198,
    "similitudes": "[0.9999057537342989,0.934487735,0.977729309,0.966830439,1, NaN,1,0.985422294,0.956465082,0.989193378,0.958798113,0.994475802,0.966464312,0.995783405,0.987776756,1,1,0.940554281,0.977475057,0.979307933,0.981797044,1,0.953625085,0.83725727,0.972789417, NaN,0.991407446,0.991655015,0.876813351, NaN,0.98525535,0.967195582, NaN,0.97827007,0.925569953,0.986690521, NaN, NaN,0.98035238, NaN]"
  },
  {
    "movieId": 3922818,
    "similitudes": "[NaN,1,0.981106988,0.74753193,1, NaN, NaN,0.980809654,1,0.997951741,0.980580676,1,0.979286039,0.980067422,0.963592629,1, NaN, NaN,0.997364949,0.98736869,0.996545758,0.953625085,1,1,0.919703027, NaN,1,0.867933073,0.975289627,1,1,0.997445038, NaN,0.984686688, NaN,0.970689226,1, NaN,0.973273559, 1.0]"
  },
  {
    "movieId": 4030600,
    "similitudes": "[NaN,0.956018558,1, NaN, NaN, NaN, NaN, NaN,1,0.77326779,0.900551636,1,0.994540886, NaN,0.844560247,1, NaN, NaN,1,0.969115544,1,0.83725727,1,1,0.986705866, NaN,1,1,0.943599982, NaN,1,1, NaN,0.967855221, NaN,0.955619559, NaN, NaN, NaN, NaN]"
  },
  {
    "movieId": 4116284,
    "similitudes": "[0.9325680982740896,0.969900958,0.954905566,0.964547863,0.989949494,0.99716412,0.996620965,0.945124712,0.999491109,0.9864066,0.973934915,0.983969402,0.985882391,0.940630642,0.983780949,0.978671298,0.997248427,1,0.967468543,0.979706297,0.991499294,0.972789417,0.919703027,0.986705866,1, NaN,0.951519428,0.984099626,0.898948887,0.987762965,0.935472094,0.960155929, NaN,0.986033425,0.994162447,0.97683376,1,1,0.977679881, 1.0]"
  },
  {
    "movieId": 4217392,
    "similitudes": "[1.0,0.979804059, NaN,0.911684612, NaN, NaN, NaN,0.828441042, NaN,1, NaN, NaN,1,0.999444907,0.935087799, NaN,0.995893206, NaN, NaN,0.93670191, NaN, NaN, NaN, NaN, NaN,1, NaN,0.989949494, NaN, NaN,0.894427191,0.926914421, NaN,0.951370917, NaN,1,1, NaN, NaN, NaN]"
  },
  {
    "movieId": 4287320,
    "similitudes": "[NaN,0.988571053,0.97531982,0.976647389,0.997054486,1,1,0.9682906,1,0.891903506, NaN,0.997785158,0.952609313, NaN,0.946047026,0.964763821,1,1,0.992543455,0.878072249,0.958966749,0.991407446,1,1,0.951519428, NaN,1,0.881806024,1,0.930757842,1,0.947542675, NaN,0.956055678, NaN,0.978534304, NaN, NaN,1, NaN]"
  },
  {
    "movieId": 4425200,
    "similitudes": "[0.9642939760107209,0.930295452,0.97483227,0.937772689,0.989730305,0.981211046,1,0.821096797,0.932154592,0.913555646, NaN,0.992295485,0.974911709,0.997755518,0.968634096,0.915829417,0.969468787,0.927100999,0.98666242,0.974167205,0.967738321,0.991655015,0.867933073,1,0.984099626,0.989949494,0.881806024,1,0.96831085,1,0.912837588,0.976549144,0.999980949,0.976149806,1,0.958314838,0.994691794,1,0.957589682, 0.8426962598121401]"
  },
  {
    "movieId": 4465564,
    "similitudes": "[NaN,0.902575971,0.912661078,0.970764227,0.912766595,1,0.629600188,1,0.879706514,0.997261587,0.981139061,0.916949301,0.945654962, NaN,0.919396091,0.856348839,1,1,0.963815362,0.928128813,0.941490485,0.876813351,0.975289627,0.943599982,0.898948887, NaN,1,0.96831085,1, NaN,0.925694947,0.941749029, NaN,0.926211007,0.789352217,0.937333585, NaN,1, NaN, NaN]"
  },
  {
    "movieId": 4481414,
    "similitudes": "[NaN, NaN, NaN, NaN, NaN, NaN,1, NaN, NaN,1, NaN, NaN,0.995399675, NaN,0.99875843,1, NaN, NaN,1,0.967091361, NaN, NaN,1, NaN,0.987762965, NaN,0.930757842,1, NaN,1, NaN,0.909340997, NaN,0.986710793, NaN,0.992733782, NaN, NaN, NaN, NaN]"
  },
  {
    "movieId": 4581576,
    "similitudes": "[NaN,0.990373372,0.954275175,0.922033236,1, NaN,1,0.996208161,0.99716412,1,1,0.999709808,0.995893206, NaN,0.918138202,1, NaN,0.999957837,1,0.974179256,0.730271414,0.98525535,1,1,0.935472094,0.894427191,1,0.912837588,0.925694947, NaN,1,0.931848544, NaN,0.983391559,1,0.8626168, NaN, NaN,0.992005875, NaN]"
  },
  {
    "movieId": 4630562,
    "similitudes": "[0.9942370181549051,0.94720902,0.961744255,0.953914697,0.907238037,0.998460353,0.982608426,0.960966086,0.917485892,0.947057622,1,0.966967584,0.970440209,0.838325948,0.968210249,0.994286396,0.976561673,0.93783213,0.966327525,0.976703931,0.976297083,0.967195582,0.997445038,1,0.960155929,0.926914421,0.947542675,0.976549144,0.941749029,0.909340997,0.931848544,1,0.99199615,0.955590862,0.989949494,0.964493552,0.932098235, NaN,0.930468598, 1.0]"
  },
  {
    "movieId": 4849438,
    "similitudes": "[NaN, NaN, NaN,1, NaN, NaN, NaN, NaN, NaN,1, NaN, NaN,0.999980949, NaN,0.996044704, NaN,0.986940183, NaN, NaN,0.998726925, NaN, NaN, NaN, NaN, NaN, NaN, NaN,0.999980949, NaN, NaN, NaN,0.99199615,1, NaN, NaN,1, NaN, NaN, NaN, 0.9986178293325099]"
  },
  {
    "movieId": 5052448,
    "similitudes": "[0.8941258311347157,0.909959536,0.97720806,0.955757043,0.938045426,0.98601375,0.948045117,0.909596955,0.982380338,0.982859908,0.926561646,0.98670804,0.97678801,0.984117685,0.981018851,0.976849947,0.983146684,0.873304855,0.958133663,0.975184903,0.980805476,0.97827007,0.984686688,0.967855221,0.986033425,0.951370917,0.956055678,0.976149806,0.926211007,0.986710793,0.983391559,0.955590862, NaN,1,0.995154428,0.964039439,1, NaN,0.983722396, NaN]"
  },
  {
    "movieId": 5155780,
    "similitudes": "[NaN,1,0.967221163, NaN, NaN, NaN, NaN,1,1,1,1, NaN,0.965775404, NaN,0.987348712, NaN, NaN,0.83701022,1,0.99780995, NaN,0.925569953, NaN, NaN,0.994162447, NaN, NaN,1,0.789352217, NaN,1,0.989949494, NaN,0.995154428,1,0.984848485, NaN, NaN,0.992277877, NaN]"
  },
  {
    "movieId": 5442430,
    "similitudes": "[0.971317876830185,0.932492959,0.968417453,0.922473083,0.945657695,1,1,0.955966614,0.957550257,0.979386606,0.97051731,0.989157839,0.967818174,0.972472376,0.978113488,0.97210817,0.983967484,0.891051177,0.93651342,0.97101113,0.948618841,0.986690521,0.970689226,0.955619559,0.97683376,1,0.978534304,0.958314838,0.937333585,0.992733782,0.8626168,0.964493552,1,0.964039439,0.984848485,1,0.998641714, NaN,0.986157388, NaN]"
  },
  {
    "movieId": 5460276,
    "similitudes": "[NaN, NaN, NaN,0.974633979, NaN, NaN, NaN,1, NaN,1, NaN, NaN,0.944737946,0.991150442,0.997612158, NaN,0.985097394, NaN,1,0.996100704, NaN, NaN,1, NaN,1,1, NaN,0.994691794, NaN, NaN, NaN,0.932098235, NaN,1, NaN,0.998641714,1, NaN, NaN, 0.9932659166648447]"
  },
  {
    "movieId": 5607714,
    "similitudes": "[NaN, NaN,0.992157222, NaN, NaN, NaN, NaN, NaN, NaN, NaN, NaN,1, NaN, NaN,0.938976438, NaN, NaN, NaN, NaN, NaN, NaN, NaN, NaN, NaN,1, NaN, NaN,1,1, NaN, NaN, NaN, NaN, NaN, NaN, NaN, NaN,1, NaN, NaN]"
  },
  {
    "movieId": 5710514,
    "similitudes": "[NaN,0.903737839,0.978278785,1, NaN, NaN, NaN,1, NaN, NaN,0.954226214,0.993265917,0.954893531,0.981155781,0.976660585, NaN, NaN, NaN,0.999837715,0.949078085, NaN,0.98035238,0.973273559, NaN,0.977679881, NaN,1,0.957589682, NaN, NaN,0.992005875,0.930468598, NaN,0.983722396,0.992277877,0.986157388, NaN, NaN,1, NaN]"
  },
  {
    "movieId": 5982852,
    "similitudes": "[NaN, NaN, NaN,1, NaN, NaN, NaN, NaN, NaN, NaN, NaN, NaN,1,0.997785158,0.991836598, NaN,0.98467433, NaN, NaN,0.99620492, NaN, NaN,1, NaN,1, NaN, NaN,0.84269626, NaN, NaN, NaN,1,0.998617829, NaN, NaN, NaN,0.993265917, NaN, NaN, 0.9999999999999999]"
  }
]